HTTP/1.1 200 OK
Content-Type: application/ld+json; profile="http://www.w3.org/ns/anno.jsonld"
//Allow: GET,OPTIONS,HEAD
//Vary: Accept, Prefer
//Content-Length: 924

{
  "@context": "http://www.w3.org/ns/anno.jsonld",
  "id": "http://example.org/annotations/?iris=0&page=0",
  "type": "AnnotationPage",
  "partOf": {
    "id": "http://example.org/annotations/?iris=0",
    "total": 42023,
    "modified": "2016-07-20T12:00:00Z",
  },
  "startIndex": 0,
  "next": "http://example.org/annotations/?iris=0&page=1",
  "items": [
    {
      "id": "http://example.org/annotations/anno1",
      "type": "Annotation",
      "body": "http://example.net/body1",
      "target": "http://example.com/page1"
    },
    {
      "id": "http://example.org/annotations/anno2",
      "type": "Annotation",
      "body": {
        "type": "TextualBody",
        "value": "I like this!"
      },
      "target": "http://example.com/book1"
    },
    ...
    {
      "id": "http://example.org/annotations/anno50",
      "type": "Annotation",
      "body" : "http://example.org/texts/description1",
      "target": "http://example.com/images/image1"
    }
  ]
}
